{
  "cviceni": {
    "version": {
      "global": "<%= version %>",
      "content": 1
    },
    "language": "cs",
    "katalog": ["test"],
    "slug": "obrazy-jana-husa",
    "nazev": "Obrazy Jana Husa",
    "autor": [""],
    "klicovaSlova": [""],
    "anotace": {
      "ucitel": "",
      "verejna": "Cvičení sleduje vývoj zobrazování Jana Husa, konfrontuje jednotlivé druhy médií a pramenů."
    },
    "trvani": 30,
    "funkce": ["lupa", "svg", "znacky", "text", "text-editor", "video"],
    "uvodniObrazek": "obrazy-jana-husa/pic-00-1024h.jpg",
    "id": 52
  },
  "slajd": [
    {
      "zadani": {
        "hlavni": "Detailně si prohlédněte obě zobrazení smrti Jana Husa.",
        "rozsirujici": ""
      },
      "napoveda": {
        "aktivity": ["lupa"],
        "text": "Při kliknutí levým tlačítkem do obrazu lupa přiblíží část obrazu ve výřezu."
      },
      "prameny": [
        "obrazy-jana-husa/pic-01-1024h.jpg",
        "obrazy-jana-husa/pic-00-1024h.jpg"
      ],
      "popisky": [
        "Středověká iluminace, kolem roku 1500.",
        "Věnceslav Černý, Upálení Mistra Jana Husa, knižní ilustrace kolem roku 1900."
      ]
    },
    {
      "class": "half-slide-previous svg-module",
      "zadani": {
        "hlavni": "Popište oba obrazy.",
        "rozsirujici": "Popište jednotlivé postavy, prostředí, interakce."
      },
      "napoveda": {
        "aktivity": ["svg"],
        "text": "Kliknutím na snímek levým tlačítkem myši označujete bod. Nakliknutím na bod pravým tlačítkem otevřete menu s nabídkou úkonů: změnit barvu bodu, (T) doplnit textový komentář, (X) smazat nakliknutý objekt."
      },
      "svg": {
        "soubory": [
          {
            "id": "svg-1",
            "soubor": "obrazy-jana-husa/pic-01-1024h.jpg",
            "funkce": ["text", "znacky"]
          },
          {
            "id": "svg-2",
            "soubor": "obrazy-jana-husa/pic-00-1024h.jpg",
            "funkce": ["text", "znacky"]
          }
        ]
      },
      "popisky": [
        "Středověká iluminace, okolo roku 1500",
        "Věnceslav Černý - Upálení Mistra Jana Husa (knižní ilustrace kolem roku 1900)"
      ]
    },
    {
      "class": ["half-slide-active"],
      "zadani": {
        "hlavni": "Srovnejte iluminaci a ilustraci.",
        "rozsirujici": ""
      },
      "napoveda": {
        "aktivity": ["text"],
        "text": "Do boxu pro text zapisujete odpověď na otázku, nebo jiný komentář (dle zadání)."
      },
      "uzivatelskyText": {
        "otazky": [
          {
            "id": "text-1",
            "zadani": "Co se na zobrazení smrti Jana Husa změnilo a co zůstalo stejné?​",
            "instrukce": "Myslím si, že…",
            "minDelka": 10,
            "maxDelka": 400
          }
        ]
      }
    },
    {
      "zadani": {
        "hlavni": "Přečtěte si dobové svědectví Petra z Mladoňovic.",
        "rozsirujici": "Označte v textu pasáže, které podle vás lépe zachycuje iluminace a které ilustrace."
      },
      "napoveda": {
        "aktivity": ["text-editor"],
        "text": "Levým tlačítkem myši zabarvíte zvolené slovo nebo slovní spojení. Otevře se vám nabídka, v níž zvolíte označovanou kategorii. Křížkem lze označení smazat."
      },
      "textovyEditor": {
        "texty": [
          {
            "id": 0,
            "text": "text-00",
            "funkce": "zvyraznovani",
            "menu": [
              {
                "title": "Iluminace",
                "commandName": "petr-iluminace",
                "classes": "text-red",
                "command": "toggle-class",
                "commandOptions": {
                  "toggleClass": "node-selected node-text-red",
                  "closeBtn": true,
                  "comments": false,
                  "commentsClass": "text-red"
                }
              },
              {
                "title": "Ilustrace",
                "commandName": "petr-ilustrace",
                "classes": "text-orange",
                "command": "toggle-class",
                "commandOptions": {
                  "toggleClass": "node-selected node-text-orange",
                  "closeBtn": true,
                  "comments": false,
                  "commentsClass": "text-orange"
                }
              }
            ]
          }
        ]
      },
      "popisky": [
        "Petra z Mladoňovic zpráva o mistru Janu Husovi v Kostnici, 1415. Z latiny přeložil a poznámkami opatřil František Heřmanský, Praha, 1965, str. 172 - 174."
      ]
    },
    {
      "class": ["half-slide-previous"],
      "zadani": {
        "hlavni": "Podívejte se na filmovou ukázku.",
        "rozsirujici": ""
      },
      "napoveda": {
        "aktivity": ["video"],
        "text": ""
      },
      "media": {
        "nastaveni": {
          "layout": "vertikalni",
          "vzhled": "normalni"
        },
        "soubory": [
          {
            "soubor": "obrazy-jana-husa/video-00.mp4",
            "poster": "obrazy-jana-husa/pic-02-1280w.jpg",
            "nazev": "Jan Hus (Otakar Vávra)",
            "popisek": "Jan Hus (r. Otakar Vávra, 1954)"
          }
        ]
      }
    },
    {
      "class": ["half-slide-active"],
      "zadani": {
        "hlavni": "Zodpovězte závěrečné otázky.",
        "rozsirujici": ""
      },
      "napoveda": {
        "aktivity": ["text"],
        "text": "Do boxu pro text zapisujete odpověď na otázku, nebo jiný komentář (dle zadání)."
      },
      "uzivatelskyText": {
        "otazky": [
          {
            "id": "text-2",
            "zadani": "Jak film posouvá původní svědectví Petra z Mladoňovic?​",
            "instrukce": "Myslím si, že…",
            "minDelka": 10,
            "maxDelka": 400
          },
          {
            "id": "text-3",
            "zadani": "V čem film navazuje na předchozí zobrazení Jana Husa a v čem se liší?​",
            "instrukce": "Myslím si, že…",
            "minDelka": 10,
            "maxDelka": 400
          }
        ]
      }
    }
  ]
}
