{
  "cviceni": {
    "version": {
      "global": "<%= version %>",
      "content": 1
    },
    "katalog": [
      "test"
    ],
    "language": "cs",
    "slug": "jaky-byl-jejich-navrat",
    "nazev": "Jaký byl jejich návrat?",
    "autor": ["Roman Anýž", "Jaroslav Najbert"],
    "casovaOsa": {
      "roky": [
        1945
      ],
      "epocha": {
        "ceska": [
          "poválečná doba a nástup komunismu"
        ]
      }
    },
    "klicovaSlova": [
      "důsledky 2. světové války",
      "holokaust",
      "Romové",
      "výpověď pramenů",
      "měníme pohledy"
    ],
    "anotace": {
      "ucitel": "Cvičení žákům předkládá poválečnou žádost předsedy národního výboru jihomoravské obce, který navrhuje vysídlení Romů navrátivších se z koncentračních táborů do pohraničí. Žáci zkoumají výpovědní hodnotu pramene a hledají, jak ho ověřit. Následně informace v žádosti porovnávají se vzpomínkou pamětníka. Cvičení lze využít k diskusi o situaci Romů během války, po válce i v dnešní době.",
      "verejna": "Přežili holokaust. Vrátili se domů. Co bylo dál? Začtěte se do úředního dokumentu podepsaného předsedou národního výboru. Co si myslel o navrátivších? Jakou budoucnost jim připravil? Co se tedy vlastně odehrálo? Hledání pravdy o romském holokaustu nikdy nebylo jednoduché. Pojďte se o to pokusit."
    },
    "obtiznost": "střední",
    "trvani": 30,
    "funkce": ["lupa", "cteni", "text"],
    "pdf": {
      "doporucenyPostup": "jaky-byl-jejich-navrat.pdf"
    },
    "uvodniObrazek": "jaky-byl-jejich-navrat/pic-00-1024h.jpg",
    "id": 103
  },
  "slajd": [
    {
      "zadani": {
        "hlavni": "Prohlédněte si a pročtěte pramen.",
        "rozsirujici": ""
      },
      "napoveda": {
        "aktivity": ["lupa"],
        "text": "Při kliknutí levým tlačítkem do obrazu lupa přiblíží část obrazu ve výřezu."
      },
      "prameny": ["jaky-byl-jejich-navrat/pic-00-1024h.jpg"],
      "popisky": [
        "Žádost Národního výboru v Bojkovicích (okres Uherské Hradiště), 16. července 1945. Téměř shodně napsanou žádost zaslali také předsedové národních výborů v Nevšové, Záhorovicích, Havřicích a Veselí n. Moravou. Zdroj: Moravský zemský archiv"
      ]
    },
    {
      "class": ["half-slide-previous"],
      "zadani": {
        "hlavni": "O čem podle vás dokument svědčí?",
        "rozsirujici": "Odstupňujte tvrzení pomocí zvětšování a zmenšování."
      },
      "napoveda": {
        "aktivity": ["word-cloud"],
        "text": "Klikáním na znamenka -/+ zmenšujte či zdůrazňujte důležitost."
      },
      "klicovaSlova": {
        "klicovaSlova": [
          {
            "id": "klicova-slova-1",
            "funkce": "wordcloud",
            "tagy": [
              {
                "text": "Romové se po válce &bdquo;nepolepšili&rdquo;."
              },
              {
                "text": "Obyvatelé obcí nebyli rádi, že se Romové vrátili."
              },
              {
                "text": "Spousta Romů válku a holokaust přežila."
              },
              {
                "text": "Obyvatelé obcí věděli, že Romové za války trpěli."
              },
              {
                "text": "Osvobození přineslo Romům konec útrap."
              },
              {
                "text": "Podle obyvatel obcí mělo pronásledování Romů sloužit k jejich &bdquo;polepšení&rdquo;."
              }
            ]
          }
        ]
      }
    },
    {
      "class": ["half-slide-active"],
      "zadani": {
        "hlavni": "Které další zdroje informací by vám mohly pomoci tato tvrzení ověřit (potvrdit, vyvrátit, upřesnit)?",
        "rozsirujici": ""
      },
      "napoveda": {
        "aktivity": ["text"],
        "text": "Do boxu pro text zapisujete odpověď na otázku, nebo jiný komentář (dle zadání)."
      },
      "uzivatelskyText": {
        "otazky": [
          {
            "id": "otazka-1",
            "zadani": "",
            "instrukce": "Myslím si, že…",
            "minDelka": 2,
            "maxDelka": 400
          }
        ]
      }
    },
    {
      "zadani": {
        "hlavni": "V textu historika označte místa, která vám pomáhají ověřit (potvrdit, vyvrátit) některá tvrzení vyplývající z žádosti bojkovického předsedy národního výboru.",
        "rozsirujici": ""
      },
      "napoveda": {
        "aktivity": ["text-editor"],
        "text": "Levým tlačítkem myši zabarvíte zvolené slovo nebo slovní spojení. Otevře se vám nabídka, v níž zvolíte označovanou kategorii. Křížkem lze označení smazat.  "
      },
      "textovyEditor": {
        "texty": [
          {
            "id": "textovy-editor-1",
            "text": "text-00",
            "funkce": "zvyraznovani",
            "menu": [
              {
                "title": "vyvrací tvrzení",
                "commandName": "vyvraci-tvrzeni",
                "classes": "text-red",
                "command": "toggle-class",
                "commandOptions": {
                  "toggleClass": "node-selected node-text-red",
                  "closeBtn": true,
                  "comments": false,
                  "commentsClass": "text-red"
                }
              },
              {
                "title": "potvrzuje tvrzení",
                "commandName": "potvrzuje-tvrzeni",
                "classes": "text-green",
                "command": "toggle-class",
                "commandOptions": {
                  "toggleClass": "node-selected node-text-green",
                  "closeBtn": true,
                  "comments": false,
                  "commentsClass": "text-green"
                }
              }
            ]
          }
        ]
      },
      "popisky": [
        "Text současného historika o situaci Romů z Bojkovic. Zdroj: Ctibor Nečas: Romové na Moravě a ve Slezsku, Brno 2005"
      ]
    },
    {
      "zadani": {
        "hlavni": "Odpovězte na otázky.",
        "rozsirujici": ""
      },
      "napoveda": {
        "aktivity": ["text"],
        "text": "Do boxu pro text zapisujete odpověď na otázku, nebo jiný komentář (dle zadání)."
      },
      "uzivatelskyText": {
        "otazky": [
          {
            "id": "otazka-2",
            "zadani": "Co jste v tomto cvičení zjistili o holokaustu českých Romů a jeho poválečných důsledcích?",
            "instrukce": "Myslím si, že…",
            "minDelka": 2,
            "maxDelka": 400
          },
          {
            "id": "otazka-3",
            "zadani": "Co jste zjistili o výpovědní hodnotě historických pramenů využitých v tomto cvičení?",
            "instrukce": "Myslím si, že…",
            "minDelka": 2,
            "maxDelka": 400
          }
        ]
      }
    }
  ]
}
